Set identity_insert [dbo].[Users] On
INSERT INTO [dbo].[Users]
           (ID ,[EmployeeID]
           ,[FirstName]
           ,[LastName]
           ,[UserName]
           ,[uPassword]
           ,[LastLogin]
           ,[Active]
           ,[EmailAdress]
           ,[City]
           ,[State]
           ,[Telephone]
           ,[PasswordReset]
           ,[Address1]
           ,[Address2]
           ,[RoleID])
     VALUES
           (0 ,Null    ,'Web'   ,'Web' , 'none' , 'none' ,null ,0 ,null , null   ,null , null  ,null  ,null , null   ,1)
		   Set identity_insert [dbo].[Users] off